fiola_sentiment_analysis
…
fiola_corr_terms_n <- fiola_corr_terms %>%
                      left_join(fiola_bigrams, by = c('item1' = 'word1','item2' = 'word2'))

#na in n due to wrong order of words. filter out nas.

fiola_corr_terms_n <- fiola_corr_terms_n %>%
                      filter(!is.na(n))

fiola_corr_terms_n 

## # A tibble: 8,020 x 4
##    item1   item2    correlation     n
##    <chr>   <chr>          <dbl> <int>
##  1 cacio   pepe           0.942     3
##  2 panna   cotta          0.940    33
##  3 casa    luca           0.925     7
##  4 dover   sole           0.922    24
##  5 bloody  mary           0.912    10
##  6 foie    gras           0.898    18
##  7 salsa   verde          0.885    12
##  8 liquid  nitrogen       0.874     7
##  9 kennedy center         0.870    20
## 10 amuse   bouche         0.865     6
## # ... with 8,010 more rows
…
#Avg Rating and sentiment score by location
#Too many cities so will separate by state.
fiola_sentiment <- fiola_sentiment %>% 
   separate(location, sep=", ", into = c("city","state"))
#Could change names of states and countries to acronyms, but don't think it would change insights all that much

fiola_sentiment %>%
  group_by(state,rating)%>%
  summarise(n=n())%>%
  arrange(desc(n))%>%
  arrange(desc(rating))%>%
  arrange(state)

## # A tibble: 165 x 3
## # Groups:   state [75]
##    state      rating     n
##    <chr>       <int> <int>
##  1 AK              5     2
##  2 AK              4     1
##  3 Alexandria      5     1
##  4 Arlington       5     1
##  5 Austin          2     1
##  6 AZ              5     4
##  7 AZ              4     3
##  8 Belgium         5     1
##  9 Brooklyn        5     2
## 10 Brooklyn        1     1
## # ... with 155 more rows

fiola_sentiment %>%
  group_by(state)%>%
  summarise(avg_mean = mean(rating), avg_sent = mean(sentiment_tally), n=n()) %>%
  arrange(desc(n))

## # A tibble: 75 x 4
##    state      avg_mean avg_sent     n
##    <chr>         <dbl>    <dbl> <int>
##  1 VA             4.13     4.63   337
##  2 DC             4.13     4.30   299
##  3 MD             4.26     5.52   180
##  4 CA             3.95     3.71    95
##  5 NY             4.31     5.68    59
##  6 FL             4.16     3.34    38
##  7 TX             4.55     4.48    33
##  8 Washington     3.81     2.71    31
##  9 WA             3.82     4.05    22
## 10 PA             4.14     2.76    21
## # ... with 65 more rows
…
